EESchema Schematic File Version 4
LIBS:pqws-power-hw-cache
EELAYER 26 0
EELAYER END
$Descr A4 11693 8268
encoding utf-8
Sheet 3 4
Title ""
Date ""
Rev ""
Comp ""
Comment1 ""
Comment2 ""
Comment3 ""
Comment4 ""
$EndDescr
Wire Wire Line
	5600 2900 5700 2900
Wire Wire Line
	5700 2900 5700 2700
Wire Wire Line
	5700 2900 6100 2900
Connection ~ 5700 2900
Wire Wire Line
	2000 3200 2000 3100
Wire Wire Line
	2600 3100 2000 3100
Connection ~ 2000 3100
Wire Wire Line
	8100 3200 8100 3100
Wire Wire Line
	8100 3200 7700 3200
Wire Wire Line
	7700 3200 7700 3100
Wire Wire Line
	7700 3200 7300 3200
Wire Wire Line
	7300 3200 7300 3100
Wire Wire Line
	8500 3200 8100 3200
Wire Wire Line
	8500 3300 8500 3200
Connection ~ 8100 3200
Connection ~ 7700 3200
Text Label 8100 3200 0    10   ~ 0
GND
Wire Wire Line
	3600 3950 3600 4000
Wire Wire Line
	5300 2900 5200 2900
Wire Wire Line
	5200 2900 4900 2900
Wire Wire Line
	6100 2200 5200 2200
Wire Wire Line
	5200 2200 5200 2900
Connection ~ 5200 2900
Wire Wire Line
	5800 3900 5800 3600
Wire Wire Line
	5650 3900 5800 3900
Connection ~ 5800 3900
Wire Wire Line
	5350 3900 4950 3900
Wire Wire Line
	4950 3900 4950 3300
Wire Wire Line
	5800 3100 7100 3100
Wire Wire Line
	7100 3100 7100 2700
Wire Wire Line
	7100 2700 7300 2700
Wire Wire Line
	7300 2700 7300 2800
Wire Wire Line
	7300 2700 7500 2700
Wire Wire Line
	7500 2700 7700 2700
Wire Wire Line
	7700 2700 7700 2800
Wire Wire Line
	7700 2700 8100 2700
Wire Wire Line
	8100 2700 8100 2800
Wire Wire Line
	7500 2700 7500 2200
Wire Wire Line
	7500 2200 6400 2200
Wire Wire Line
	5800 3300 5800 3100
Connection ~ 7300 2700
Connection ~ 7700 2700
Connection ~ 7500 2700
Connection ~ 5800 3100
Connection ~ 8100 2700
Text Notes 3550 950  0    59   ~ 0
Voltage at SET can be used to\nset MPPT level. In full sun,\nadjust pot until V_SET = 2.8V.
Wire Wire Line
	5800 3900 5800 4050
$Comp
L power:GND #PWR0304
U 1 1 5B0DFF5A
P 8500 3300
F 0 "#PWR0304" H 8500 3050 50  0001 C CNN
F 1 "GND" H 8505 3127 50  0000 C CNN
F 2 "" H 8500 3300 50  0001 C CNN
F 3 "" H 8500 3300 50  0001 C CNN
	1    8500 3300
	1    0    0    -1  
$EndComp
$Comp
L power:GND #PWR0302
U 1 1 5B0DFF8A
P 5800 4550
F 0 "#PWR0302" H 5800 4300 50  0001 C CNN
F 1 "GND" H 5805 4377 50  0000 C CNN
F 2 "" H 5800 4550 50  0001 C CNN
F 3 "" H 5800 4550 50  0001 C CNN
	1    5800 4550
	1    0    0    -1  
$EndComp
$Comp
L power:GND #PWR0303
U 1 1 5B0E019A
P 6100 3700
F 0 "#PWR0303" H 6100 3450 50  0001 C CNN
F 1 "GND" H 6105 3527 50  0000 C CNN
F 2 "" H 6100 3700 50  0001 C CNN
F 3 "" H 6100 3700 50  0001 C CNN
	1    6100 3700
	1    0    0    -1  
$EndComp
$Comp
L Battery_Management:LT3652EDD U301
U 1 1 5B0E06BE
P 4400 3000
F 0 "U301" H 4550 3600 50  0000 C CNN
F 1 "LT3652EDD" H 4650 3500 50  0000 C CNN
F 2 "Package_DFN_QFN:DFN-12-1EP_3x3mm_P0.45mm_EP1.66x2.38mm" H 4400 2400 50  0001 C CNN
F 3 "http://cds.linear.com/docs/en/datasheet/3652fe.pdf" H 5000 2200 50  0001 C CNN
	1    4400 3000
	1    0    0    -1  
$EndComp
Wire Wire Line
	4900 3300 4950 3300
Wire Wire Line
	4900 3000 6500 3000
Wire Wire Line
	4900 3100 5800 3100
Wire Wire Line
	6100 3600 6100 3700
Wire Wire Line
	6100 2900 6100 3300
$Comp
L Connector_Generic:Conn_01x03 J302
U 1 1 5B10E22A
P 9100 2800
F 0 "J302" H 9179 2842 50  0000 L CNN
F 1 "Battery" H 9179 2751 50  0000 L CNN
F 2 "Connector_JST:JST_PH_B3B-PH-SM4-TB_1x03-1MP_P2.00mm_Vertical" H 9100 2800 50  0001 C CNN
F 3 "~" H 9100 2800 50  0001 C CNN
	1    9100 2800
	1    0    0    -1  
$EndComp
Text Label 4900 3200 0    50   ~ 0
NTC
Text Label 8900 2900 2    50   ~ 0
NTC
Wire Wire Line
	8900 2800 8500 2800
Wire Wire Line
	8500 2800 8500 3200
Connection ~ 8500 3200
Wire Wire Line
	8100 2700 8900 2700
$Comp
L Connector_Generic:Conn_01x02 J301
U 1 1 5B1151C3
P 1550 2600
F 0 "J301" H 1470 2275 50  0000 C CNN
F 1 "Solar Panel" H 1470 2366 50  0000 C CNN
F 2 "Connector_JST:JST_PH_B2B-PH-SM4-TB_1x02-1MP_P2.00mm_Vertical" H 1550 2600 50  0001 C CNN
F 3 "~" H 1550 2600 50  0001 C CNN
	1    1550 2600
	-1   0    0    1   
$EndComp
Wire Wire Line
	1750 2600 1750 3100
Wire Wire Line
	1750 3100 2000 3100
Wire Wire Line
	2600 3100 2600 3050
Text Label 8700 2700 0    50   ~ 0
VBAT
Text Label 2900 4150 0    50   ~ 0
VBAT
$Comp
L Device:LED D304
U 1 1 5B1282FA
P 3250 3400
F 0 "D304" V 3195 3479 50  0000 L CNN
F 1 "LED" V 3286 3479 50  0000 L CNN
F 2 "LED_SMD:LED_0603_1608Metric_Pad0.82x1.00mm_HandSolder" H 3250 3400 50  0001 C CNN
F 3 "~" H 3250 3400 50  0001 C CNN
	1    3250 3400
	0    1    1    0   
$EndComp
$Comp
L Device:LED D303
U 1 1 5B1283FB
P 2900 3400
F 0 "D303" V 2845 3479 50  0000 L CNN
F 1 "LED" V 2936 3479 50  0000 L CNN
F 2 "LED_SMD:LED_0603_1608Metric_Pad0.82x1.00mm_HandSolder" H 2900 3400 50  0001 C CNN
F 3 "~" H 2900 3400 50  0001 C CNN
	1    2900 3400
	0    1    1    0   
$EndComp
Wire Wire Line
	3900 3200 3250 3200
Wire Wire Line
	3250 3200 3250 3250
Wire Wire Line
	3900 3100 2900 3100
Wire Wire Line
	2900 3100 2900 3250
$Comp
L Device:R R305
U 1 1 5B12B1F8
P 2900 3800
F 0 "R305" H 2970 3846 50  0000 L CNN
F 1 "R" H 2970 3755 50  0000 L CNN
F 2 "Resistor_SMD:R_0603_1608Metric_Pad0.99x1.00mm_HandSolder" V 2830 3800 50  0001 C CNN
F 3 "~" H 2900 3800 50  0001 C CNN
	1    2900 3800
	1    0    0    -1  
$EndComp
$Comp
L Device:R R306
U 1 1 5B12B240
P 3250 3800
F 0 "R306" H 3320 3846 50  0000 L CNN
F 1 "R" H 3320 3755 50  0000 L CNN
F 2 "Resistor_SMD:R_0603_1608Metric_Pad0.99x1.00mm_HandSolder" V 3180 3800 50  0001 C CNN
F 3 "~" H 3250 3800 50  0001 C CNN
	1    3250 3800
	1    0    0    -1  
$EndComp
Wire Wire Line
	2900 3550 2900 3650
Wire Wire Line
	3250 3550 3250 3650
Wire Wire Line
	2900 3950 3250 3950
Wire Wire Line
	2900 3950 2900 4150
Connection ~ 2900 3950
$Comp
L power:PWR_FLAG #FLG0101
U 1 1 5B131D5B
P 2000 1900
F 0 "#FLG0101" H 2000 1975 50  0001 C CNN
F 1 "PWR_FLAG" H 2000 2074 50  0000 C CNN
F 2 "" H 2000 1900 50  0001 C CNN
F 3 "~" H 2000 1900 50  0001 C CNN
	1    2000 1900
	1    0    0    -1  
$EndComp
Text Label 3000 1900 0    50   ~ 0
VSolar
Text Label 3150 2900 0    50   ~ 0
VIN_REG
Text Label 3200 3100 0    50   ~ 0
CHARGE
Text Label 3300 3200 0    50   ~ 0
FAULT
Text Label 3600 3550 0    50   ~ 0
TIMER
Text Label 5000 3900 0    50   ~ 0
VFB
Text Label 6200 3000 0    50   ~ 0
SENSE
Text Label 5000 2700 0    50   ~ 0
SW
Text HLabel 7500 2200 2    50   Input ~ 0
U_V_Bus
$Comp
L power:GND #PWR0112
U 1 1 5B13A72E
P 4400 3600
F 0 "#PWR0112" H 4400 3350 50  0001 C CNN
F 1 "GND" H 4405 3427 50  0000 C CNN
F 2 "" H 4400 3600 50  0001 C CNN
F 3 "" H 4400 3600 50  0001 C CNN
	1    4400 3600
	1    0    0    -1  
$EndComp
$Comp
L power:GND #PWR0113
U 1 1 5B13A763
P 3600 4000
F 0 "#PWR0113" H 3600 3750 50  0001 C CNN
F 1 "GND" H 3605 3827 50  0000 C CNN
F 2 "" H 3600 4000 50  0001 C CNN
F 3 "" H 3600 4000 50  0001 C CNN
	1    3600 4000
	1    0    0    -1  
$EndComp
Wire Wire Line
	4400 3500 4400 3600
Wire Wire Line
	5800 4350 5800 4550
Wire Wire Line
	4900 2700 5700 2700
Connection ~ 5700 2700
Wire Wire Line
	5700 2700 5950 2700
Wire Wire Line
	1750 2500 2000 2500
Connection ~ 2000 1900
Wire Wire Line
	2000 2600 2000 2500
Connection ~ 2000 2500
Wire Wire Line
	2000 2500 2000 1900
Wire Wire Line
	2000 2900 2000 3100
Wire Wire Line
	2600 2750 2600 1900
Wire Wire Line
	2000 1900 2600 1900
Wire Wire Line
	2750 2900 3900 2900
Wire Wire Line
	3900 3300 3600 3300
Wire Wire Line
	3600 3300 3600 3650
$Comp
L Device:C C302
U 1 1 5B0AB5DB
P 3600 3800
F 0 "C302" H 3715 3846 50  0000 L CNN
F 1 "C" H 3715 3755 50  0000 L CNN
F 2 "Capacitor_SMD:C_0603_1608Metric_Pad0.99x1.00mm_HandSolder" H 3638 3650 50  0001 C CNN
F 3 "~" H 3600 3800 50  0001 C CNN
	1    3600 3800
	1    0    0    -1  
$EndComp
$Comp
L Device:L L301
U 1 1 5B0C47AB
P 6100 2700
F 0 "L301" V 6290 2700 50  0000 C CNN
F 1 "68uF" V 6199 2700 50  0000 C CNN
F 2 "lsf-kicad-lib:Sumida_CR75" H 6100 2700 50  0001 C CNN
F 3 "http://products.sumida.com/products/pdf/CR75.pdf" H 6100 2700 50  0001 C CNN
F 4 "CR75NP-680KC" V 6100 2700 50  0001 C CNN "Part Number"
	1    6100 2700
	0    -1   -1   0   
$EndComp
$Comp
L Device:C C301
U 1 1 5B0C8426
P 2000 2750
F 0 "C301" H 2115 2796 50  0000 L CNN
F 1 "10uF" H 2115 2705 50  0000 L CNN
F 2 "Capacitor_SMD:C_1206_3216Metric_Pad1.39x1.80mm_HandSolder" H 2038 2600 50  0001 C CNN
F 3 "~" H 2000 2750 50  0001 C CNN
	1    2000 2750
	1    0    0    -1  
$EndComp
$Comp
L Device:R_POT RV301
U 1 1 5B0C8B8E
P 2600 2900
F 0 "RV301" H 2530 2946 50  0000 R CNN
F 1 "10k" H 2530 2855 50  0000 R CNN
F 2 "Potentiometer_SMD:Potentiometer_Bourns_3214G_Horizontal" H 2600 2900 50  0001 C CNN
F 3 "~" H 2600 2900 50  0001 C CNN
	1    2600 2900
	1    0    0    -1  
$EndComp
$Comp
L Device:D_Schottky D305
U 1 1 5B0C95BC
P 6100 3450
F 0 "D305" V 6054 3529 50  0000 L CNN
F 1 "ZLLS500" V 6145 3529 50  0000 L CNN
F 2 "Package_TO_SOT_SMD:SOT-23" H 6100 3450 50  0001 C CNN
F 3 "~" H 6100 3450 50  0001 C CNN
F 4 "ZLLS500" V 6100 3450 50  0001 C CNN "Part Number"
	1    6100 3450
	0    1    1    0   
$EndComp
$Comp
L Device:CP C305
U 1 1 5B0CB3FC
P 7700 2950
F 0 "C305" H 7818 2996 50  0000 L CNN
F 1 "47uF" H 7818 2905 50  0000 L CNN
F 2 "Capacitor_SMD:C_1206_3216Metric_Pad1.39x1.80mm_HandSolder" H 7738 2800 50  0001 C CNN
F 3 "~" H 7700 2950 50  0001 C CNN
	1    7700 2950
	1    0    0    -1  
$EndComp
$Comp
L Device:CP C306
U 1 1 5B0CB5CD
P 8100 2950
F 0 "C306" H 8218 2996 50  0000 L CNN
F 1 "47uF" H 8218 2905 50  0000 L CNN
F 2 "Capacitor_SMD:C_1206_3216Metric_Pad1.39x1.80mm_HandSolder" H 8138 2800 50  0001 C CNN
F 3 "~" H 8100 2950 50  0001 C CNN
	1    8100 2950
	1    0    0    -1  
$EndComp
$Comp
L Device:D_Schottky D301
U 1 1 5B0CBA6A
P 6250 2200
F 0 "D301" H 6250 2416 50  0000 C CNN
F 1 "ZLLS500" H 6250 2325 50  0000 C CNN
F 2 "Package_TO_SOT_SMD:SOT-23" H 6250 2200 50  0001 C CNN
F 3 "~" H 6250 2200 50  0001 C CNN
F 4 "ZLLS500" V 6250 2200 50  0001 C CNN "Part Number"
	1    6250 2200
	1    0    0    -1  
$EndComp
$Comp
L Device:R R304
U 1 1 5B0CC374
P 6800 2700
F 0 "R304" V 6593 2700 50  0000 C CNN
F 1 "0.22" V 6684 2700 50  0000 C CNN
F 2 "Resistor_SMD:R_0805_2012Metric_Pad1.29x1.40mm_HandSolder" V 6730 2700 50  0001 C CNN
F 3 "~" H 6800 2700 50  0001 C CNN
	1    6800 2700
	0    1    1    0   
$EndComp
Wire Wire Line
	6250 2700 6500 2700
Wire Wire Line
	6950 2700 7100 2700
Connection ~ 7100 2700
Wire Wire Line
	6500 3000 6500 2700
Connection ~ 6500 2700
Wire Wire Line
	6500 2700 6650 2700
$Comp
L Device:C C304
U 1 1 5B0D2DB1
P 7300 2950
F 0 "C304" H 7415 2996 50  0000 L CNN
F 1 "10uF" H 7415 2905 50  0000 L CNN
F 2 "Capacitor_SMD:C_1206_3216Metric_Pad1.39x1.80mm_HandSolder" H 7338 2800 50  0001 C CNN
F 3 "~" H 7300 2950 50  0001 C CNN
	1    7300 2950
	1    0    0    -1  
$EndComp
$Comp
L Device:R R302
U 1 1 5B0D33DE
P 5800 3450
F 0 "R302" H 5731 3496 50  0000 R CNN
F 1 "47k" H 5731 3405 50  0000 R CNN
F 2 "Resistor_SMD:R_0603_1608Metric_Pad0.99x1.00mm_HandSolder" V 5730 3450 50  0001 C CNN
F 3 "~" H 5800 3450 50  0001 C CNN
	1    5800 3450
	1    0    0    -1  
$EndComp
$Comp
L Device:R R301
U 1 1 5B0D3444
P 5500 3900
F 0 "R301" V 5293 3900 50  0000 C CNN
F 1 "220k" V 5384 3900 50  0000 C CNN
F 2 "Resistor_SMD:R_0603_1608Metric_Pad0.99x1.00mm_HandSolder" V 5430 3900 50  0001 C CNN
F 3 "~" H 5500 3900 50  0001 C CNN
	1    5500 3900
	0    1    1    0   
$EndComp
$Comp
L Device:R R303
U 1 1 5B0D34B5
P 5800 4200
F 0 "R303" H 5730 4154 50  0000 R CNN
F 1 "220k" H 5730 4245 50  0000 R CNN
F 2 "Resistor_SMD:R_0603_1608Metric_Pad0.99x1.00mm_HandSolder" V 5730 4200 50  0001 C CNN
F 3 "~" H 5800 4200 50  0001 C CNN
	1    5800 4200
	-1   0    0    1   
$EndComp
$Comp
L power:GND #PWR0301
U 1 1 5B0E01E2
P 2000 3200
F 0 "#PWR0301" H 2000 2950 50  0001 C CNN
F 1 "GND" H 2005 3027 50  0000 C CNN
F 2 "" H 2000 3200 50  0001 C CNN
F 3 "" H 2000 3200 50  0001 C CNN
	1    2000 3200
	1    0    0    -1  
$EndComp
$Comp
L Device:C C303
U 1 1 5B0EF136
P 5450 2900
F 0 "C303" V 5200 2900 50  0000 C CNN
F 1 "1uF" V 5300 2900 50  0000 C CNN
F 2 "Capacitor_SMD:C_0603_1608Metric_Pad0.99x1.00mm_HandSolder" H 5488 2750 50  0001 C CNN
F 3 "~" H 5450 2900 50  0001 C CNN
	1    5450 2900
	0    1    1    0   
$EndComp
Text Label 5450 2200 0    50   ~ 0
BOOST
Wire Wire Line
	4400 1900 4400 2500
Connection ~ 2600 1900
$Comp
L Device:R R1
U 1 1 5B168366
P 3550 2500
F 0 "R1" V 3343 2500 50  0000 C CNN
F 1 "10K" V 3434 2500 50  0000 C CNN
F 2 "Resistor_SMD:R_0603_1608Metric_Pad0.99x1.00mm_HandSolder" V 3480 2500 50  0001 C CNN
F 3 "~" H 3550 2500 50  0001 C CNN
	1    3550 2500
	0    1    1    0   
$EndComp
$Comp
L power:GND #PWR02
U 1 1 5B16B771
P 3200 2550
F 0 "#PWR02" H 3200 2300 50  0001 C CNN
F 1 "GND" H 3205 2377 50  0000 C CNN
F 2 "" H 3200 2550 50  0001 C CNN
F 3 "" H 3200 2550 50  0001 C CNN
	1    3200 2550
	1    0    0    -1  
$EndComp
Wire Wire Line
	3400 2500 3200 2500
Wire Wire Line
	3200 2500 3200 2550
Wire Wire Line
	3900 2500 3900 2700
Wire Wire Line
	3700 2500 3900 2500
$Comp
L Switch:SW_DIP_x01 SW2
U 1 1 5B173716
P 3900 2200
F 0 "SW2" V 3854 2330 50  0000 L CNN
F 1 "Charge" V 3945 2330 50  0000 L CNN
F 2 "Button_Switch_SMD:SW_DIP_SPSTx01_Slide_6.7x4.1mm_W8.61mm_P2.54mm_LowProfile" H 3900 2200 50  0001 C CNN
F 3 "" H 3900 2200 50  0001 C CNN
F 4 "DM01" V 3900 2200 50  0001 C CNN "Part Number"
	1    3900 2200
	0    1    1    0   
$EndComp
Wire Wire Line
	2600 1900 3900 1900
Connection ~ 3900 1900
Wire Wire Line
	3900 1900 4400 1900
Connection ~ 3900 2500
Text Label 3900 2650 2    50   ~ 0
SHDN
$EndSCHEMATC
