EESchema Schematic File Version 4
LIBS:pqws-power-hw-cache
EELAYER 26 0
EELAYER END
$Descr A4 11693 8268
encoding utf-8
Sheet 2 2
Title ""
Date ""
Rev ""
Comp ""
Comment1 ""
Comment2 ""
Comment3 ""
Comment4 ""
$EndDescr
Wire Notes Line
	7900 2600 3750 2600
Wire Notes Line
	7900 4750 7900 2600
Wire Notes Line
	3750 4750 7900 4750
Wire Notes Line
	3750 2600 3750 4750
Text Notes 4200 3150 0    50   ~ 0
VinMin = 3.0V\nVinMax = 9.0V\nVout = 3.3V\nIout = 1.0A
Connection ~ 7050 3450
Wire Wire Line
	7050 3750 7050 3450
Wire Wire Line
	7050 3450 7450 3450
Wire Wire Line
	7450 3450 7550 3450
Connection ~ 7450 3450
Wire Wire Line
	7450 3750 7450 3450
Wire Wire Line
	7450 4150 7450 4050
Wire Wire Line
	7050 4050 7050 4150
$Comp
L power:GND #PWR0208
U 1 1 5AEEA08E
P 7450 4150
F 0 "#PWR0208" H 7450 3900 50  0001 C CNN
F 1 "GND" H 7455 3977 50  0000 C CNN
F 2 "" H 7450 4150 50  0001 C CNN
F 3 "" H 7450 4150 50  0001 C CNN
	1    7450 4150
	1    0    0    -1  
$EndComp
$Comp
L power:GND #PWR0207
U 1 1 5AEEA06F
P 7050 4150
F 0 "#PWR0207" H 7050 3900 50  0001 C CNN
F 1 "GND" H 7055 3977 50  0000 C CNN
F 2 "" H 7050 4150 50  0001 C CNN
F 3 "" H 7050 4150 50  0001 C CNN
	1    7050 4150
	1    0    0    -1  
$EndComp
$Comp
L Device:C C204
U 1 1 5AEE9EF0
P 7450 3900
F 0 "C204" H 7565 3946 50  0000 L CNN
F 1 "47uF" H 7565 3855 50  0000 L CNN
F 2 "Capacitor_SMD:C_1206_3216Metric_Pad1.39x1.80mm_HandSolder" H 7488 3750 50  0001 C CNN
F 3 "~" H 7450 3900 50  0001 C CNN
F 4 "GRM31CC80J476KE18L" H 7450 3900 50  0001 C CNN "Part Number"
	1    7450 3900
	1    0    0    -1  
$EndComp
$Comp
L Device:C C203
U 1 1 5AEE9E88
P 7050 3900
F 0 "C203" H 7165 3946 50  0000 L CNN
F 1 "10uF" H 7165 3855 50  0000 L CNN
F 2 "Capacitor_SMD:C_0603_1608Metric_Pad0.99x1.00mm_HandSolder" H 7088 3750 50  0001 C CNN
F 3 "~" H 7050 3900 50  0001 C CNN
F 4 "GRM188R60J106ME47D" H 7050 3900 50  0001 C CNN "Part Number"
	1    7050 3900
	1    0    0    -1  
$EndComp
Wire Wire Line
	6300 4100 6300 4150
$Comp
L power:GND #PWR0206
U 1 1 5AEE7C18
P 6300 4150
F 0 "#PWR0206" H 6300 3900 50  0001 C CNN
F 1 "GND" H 6305 3977 50  0000 C CNN
F 2 "" H 6300 4150 50  0001 C CNN
F 3 "" H 6300 4150 50  0001 C CNN
	1    6300 4150
	1    0    0    -1  
$EndComp
Wire Wire Line
	6650 3450 7050 3450
Connection ~ 6650 3450
Wire Wire Line
	6650 3800 6650 3450
Wire Wire Line
	6650 4400 6650 4100
Wire Wire Line
	6050 4400 6650 4400
Wire Wire Line
	6050 4050 6050 4400
Wire Wire Line
	6050 3750 6300 3750
Wire Wire Line
	6300 3750 6300 3800
$Comp
L Device:R R203
U 1 1 5AEE2D2C
P 6300 3950
F 0 "R203" H 6230 3904 50  0000 R CNN
F 1 "100K" H 6230 3995 50  0000 R CNN
F 2 "Resistor_SMD:R_0603_1608Metric_Pad0.99x1.00mm_HandSolder" V 6230 3950 50  0001 C CNN
F 3 "~" H 6300 3950 50  0001 C CNN
	1    6300 3950
	-1   0    0    1   
$EndComp
Wire Wire Line
	6300 3450 6650 3450
Connection ~ 6300 3450
Connection ~ 6300 3750
$Comp
L Device:R R202
U 1 1 5AEE2CF8
P 6300 3600
F 0 "R202" H 6230 3554 50  0000 R CNN
F 1 "309K" H 6230 3645 50  0000 R CNN
F 2 "Resistor_SMD:R_0603_1608Metric_Pad0.99x1.00mm_HandSolder" V 6230 3600 50  0001 C CNN
F 3 "~" H 6300 3600 50  0001 C CNN
	1    6300 3600
	-1   0    0    1   
$EndComp
$Comp
L Device:R R204
U 1 1 5AEE2BFB
P 6650 3950
F 0 "R204" H 6580 3904 50  0000 R CNN
F 1 "102K" H 6580 3995 50  0000 R CNN
F 2 "Resistor_SMD:R_0603_1608Metric_Pad0.99x1.00mm_HandSolder" V 6580 3950 50  0001 C CNN
F 3 "~" H 6650 3950 50  0001 C CNN
	1    6650 3950
	-1   0    0    1   
$EndComp
Text GLabel 7550 3450 2    50   Input ~ 0
+3V3
$Comp
L power:GND #PWR0203
U 1 1 5AEE20D5
P 5150 4150
F 0 "#PWR0203" H 5150 3900 50  0001 C CNN
F 1 "GND" H 5155 3977 50  0000 C CNN
F 2 "" H 5150 4150 50  0001 C CNN
F 3 "" H 5150 4150 50  0001 C CNN
	1    5150 4150
	1    0    0    -1  
$EndComp
Wire Wire Line
	5150 4050 5250 4050
Wire Wire Line
	5150 4050 5150 4150
Wire Wire Line
	5750 4450 5650 4450
Wire Wire Line
	5750 4350 5750 4450
Wire Wire Line
	5650 4350 5650 4450
Wire Wire Line
	4650 4100 4650 4150
$Comp
L power:GND #PWR0202
U 1 1 5AEE0F73
P 4650 4150
F 0 "#PWR0202" H 4650 3900 50  0001 C CNN
F 1 "GND" H 4655 3977 50  0000 C CNN
F 2 "" H 4650 4150 50  0001 C CNN
F 3 "" H 4650 4150 50  0001 C CNN
	1    4650 4150
	1    0    0    -1  
$EndComp
Wire Wire Line
	5250 3950 5200 3950
Wire Wire Line
	4650 3800 5250 3800
Wire Wire Line
	4200 4100 4200 4150
$Comp
L Device:C C202
U 1 1 5AEDFBC2
P 4650 3950
F 0 "C202" H 4765 3996 50  0000 L CNN
F 1 "100nF" H 4765 3905 50  0000 L CNN
F 2 "Capacitor_SMD:C_0603_1608Metric_Pad0.99x1.00mm_HandSolder" H 4688 3800 50  0001 C CNN
F 3 "~" H 4650 3950 50  0001 C CNN
F 4 "C3216X5R1E336M160AC" H 4650 3950 50  0001 C CNN "Part Number"
	1    4650 3950
	1    0    0    -1  
$EndComp
Connection ~ 5650 4450
$Comp
L power:GND #PWR0204
U 1 1 5AEDFB18
P 5650 4450
F 0 "#PWR0204" H 5650 4200 50  0001 C CNN
F 1 "GND" H 5655 4277 50  0000 C CNN
F 2 "" H 5650 4450 50  0001 C CNN
F 3 "" H 5650 4450 50  0001 C CNN
	1    5650 4450
	1    0    0    -1  
$EndComp
$Comp
L power:GND #PWR0201
U 1 1 5AEDFAFE
P 4200 4150
F 0 "#PWR0201" H 4200 3900 50  0001 C CNN
F 1 "GND" H 4205 3977 50  0000 C CNN
F 2 "" H 4200 4150 50  0001 C CNN
F 3 "" H 4200 4150 50  0001 C CNN
	1    4200 4150
	1    0    0    -1  
$EndComp
Wire Wire Line
	4200 3700 4200 3800
Wire Wire Line
	4250 3700 4200 3700
Wire Wire Line
	4200 3450 4050 3450
Connection ~ 4200 3700
Wire Wire Line
	4200 3450 4200 3700
$Comp
L Device:C C201
U 1 1 5AEDF595
P 4200 3950
F 0 "C201" H 4315 3996 50  0000 L CNN
F 1 "33uF" H 4315 3905 50  0000 L CNN
F 2 "Capacitor_SMD:C_1206_3216Metric_Pad1.39x1.80mm_HandSolder" H 4238 3800 50  0001 C CNN
F 3 "~" H 4200 3950 50  0001 C CNN
F 4 "C3216X5R1E336M160AC" H 4200 3950 50  0001 C CNN "Part Number"
	1    4200 3950
	1    0    0    -1  
$EndComp
Wire Wire Line
	4550 3700 5250 3700
$Comp
L Device:R R201
U 1 1 5AEDF4B6
P 4400 3700
F 0 "R201" V 4193 3700 50  0000 C CNN
F 1 "10K" V 4284 3700 50  0000 C CNN
F 2 "Resistor_SMD:R_0603_1608Metric_Pad0.99x1.00mm_HandSolder" V 4330 3700 50  0001 C CNN
F 3 "~" H 4400 3700 50  0001 C CNN
	1    4400 3700
	0    1    1    0   
$EndComp
Connection ~ 4200 3450
Wire Wire Line
	5200 3450 4200 3450
Connection ~ 5200 3450
Wire Wire Line
	5250 3450 5200 3450
Text GLabel 4050 3450 0    50   Input ~ 0
V_In
Wire Wire Line
	5250 2950 5250 3350
Wire Wire Line
	5500 2950 5250 2950
Wire Wire Line
	6050 2950 6050 3350
Wire Wire Line
	5800 2950 6050 2950
$Comp
L Device:L_Core_Ferrite L201
U 1 1 5AEDF1CF
P 5650 2950
F 0 "L201" V 5875 2950 50  0000 C CNN
F 1 "1.4uH" V 5784 2950 50  0000 C CNN
F 2 "Inductor_SMD:L_Coilcraft_XxL4020" H 5650 2950 50  0001 C CNN
F 3 "~" H 5650 2950 50  0001 C CNN
F 4 "XFL4020-152MEB" V 5650 2950 50  0001 C CNN "Part Number"
	1    5650 2950
	0    -1   -1   0   
$EndComp
$Comp
L lsd-kicad:TPS63070RNM U201
U 1 1 5AEBA648
P 5650 3750
F 0 "U201" H 5650 4417 50  0000 C CNN
F 1 "TPS63070RNM" H 5650 4326 50  0000 C CNN
F 2 "lsf-kicad-lib:VQFN-15_2.5x3_Pitch0.5mm" H 5650 3750 50  0001 C CNN
F 3 "http://www.ti.com/lit/ds/symlink/tps63070.pdf" H 5650 3750 50  0001 C CNN
	1    5650 3750
	1    0    0    -1  
$EndComp
$Comp
L power:GND #PWR0205
U 1 1 5AF0F646
P 6150 4000
F 0 "#PWR0205" H 6150 3750 50  0001 C CNN
F 1 "GND" H 6155 3827 50  0000 C CNN
F 2 "" H 6150 4000 50  0001 C CNN
F 3 "" H 6150 4000 50  0001 C CNN
	1    6150 4000
	1    0    0    -1  
$EndComp
Wire Wire Line
	6050 3850 6150 3850
Wire Wire Line
	6150 3850 6150 4000
Wire Wire Line
	5200 3450 5200 3950
Wire Wire Line
	6050 3450 6300 3450
$EndSCHEMATC
